AQI Visualizations
…
Rows: 10433 Columns: 14
── Column specification ────────────────────────────────────────────────────────
Delimiter: ","
chr   (3): State, County, AQI_cat
dbl  (10): AQI, co, ozone, no2, so2, wind, temp, humid, pressure, no
date  (1): Date

ℹ Use `spec()` to retrieve the full column specification for this data.
ℹ Specify the column types or set `show_col_types = FALSE` to quiet this message.

Code

aqi_ozone

# A tibble: 10,433 × 14
   State   County  Date         AQI AQI_cat    co  ozone   no2   so2  wind  temp
   <chr>   <chr>   <date>     <dbl> <chr>   <dbl>  <dbl> <dbl> <dbl> <dbl> <dbl>
 1 Alabama Jeffer… 2021-02-02    38 Good    0.177 0.0376  4.02 0.146  3.74  37.1
 2 Alabama Jeffer… 2021-02-07    31 Good    0.181 0.0229  4.6  0.153  2.34  40.1
 3 Alabama Jeffer… 2021-03-01    29 Good    0.152 0.0251  5.60 0.293  5.87  55.9
 4 Alabama Jeffer… 2021-03-02    28 Good    0.218 0.0213  7.90 0.329  4.88  44.1
 5 Alabama Jeffer… 2021-03-03    44 Good    0.278 0.0253 13.3  0.260  3.85  49.6
 6 Alabama Jeffer… 2021-03-04    54 Modera… 0.480 0.0274 20.2  0.698  3.16  52.1
 7 Alabama Jeffer… 2021-03-06    46 Good    0.193 0.0368  3.38 0.273  6.42  49.5
 8 Alabama Jeffer… 2021-03-07    48 Good    0.251 0.0287 11.7  0.565  4.05  48.6
 9 Alabama Jeffer… 2021-03-17    33 Good    0.219 0.0267  6.48 0.287  5.74  64.1
10 Alabama Jeffer… 2021-03-20    49 Good    0.197 0.0343  8.08 0.465  5.5   52.0
# … with 10,423 more rows, and 3 more variables: humid <dbl>, pressure <dbl>,
#   no <dbl>

Code

aqi_ozone %>%
  count(State)

# A tibble: 32 × 2
   State                    n
   <chr>                <int>
 1 Alabama                122
 2 Arizona                824
 3 California            1408
 4 Connecticut            214
 5 District Of Columbia   215
 6 Georgia                194
 7 Idaho                  365
 8 Illinois               193
 9 Indiana                 83
10 Kentucky               113
# … with 22 more rows
…
Figure 4. Correlation matrix heatmap to show inter-predictor relationships

Code

aqi_ozone

# A tibble: 10,433 × 14
   State   County  Date         AQI AQI_cat    co  ozone   no2   so2  wind  temp
   <chr>   <chr>   <date>     <dbl> <chr>   <dbl>  <dbl> <dbl> <dbl> <dbl> <dbl>
 1 Alabama Jeffer… 2021-02-02    38 Good    0.177 0.0376  4.02 0.146  3.74  37.1
 2 Alabama Jeffer… 2021-02-07    31 Good    0.181 0.0229  4.6  0.153  2.34  40.1
 3 Alabama Jeffer… 2021-03-01    29 Good    0.152 0.0251  5.60 0.293  5.87  55.9
 4 Alabama Jeffer… 2021-03-02    28 Good    0.218 0.0213  7.90 0.329  4.88  44.1
 5 Alabama Jeffer… 2021-03-03    44 Good    0.278 0.0253 13.3  0.260  3.85  49.6
 6 Alabama Jeffer… 2021-03-04    54 Modera… 0.480 0.0274 20.2  0.698  3.16  52.1
 7 Alabama Jeffer… 2021-03-06    46 Good    0.193 0.0368  3.38 0.273  6.42  49.5
 8 Alabama Jeffer… 2021-03-07    48 Good    0.251 0.0287 11.7  0.565  4.05  48.6
 9 Alabama Jeffer… 2021-03-17    33 Good    0.219 0.0267  6.48 0.287  5.74  64.1
10 Alabama Jeffer… 2021-03-20    49 Good    0.197 0.0343  8.08 0.465  5.5   52.0
# … with 10,423 more rows, and 3 more variables: humid <dbl>, pressure <dbl>,
#   no <dbl>
…
